[gd_scene load_steps=5 format=3 uid="uid://dn850mwkvnwd"]

[sub_resource type="StandardMaterial3D" id="StandardMaterial3D_j7wwc"]
cull_mode = 2

[sub_resource type="QuadMesh" id="QuadMesh_c2aqu"]
material = SubResource("StandardMaterial3D_j7wwc")
size = Vector2(24, 0.5)
orientation = 1

[sub_resource type="BoxMesh" id="BoxMesh_miyb7"]
size = Vector3(0.2, 20, 0.2)

[sub_resource type="StandardMaterial3D" id="StandardMaterial3D_561yc"]
shading_mode = 0
albedo_color = Color(0.219608, 0.603922, 0.133333, 1)

[node name="DBG" type="Node3D"]

[node name="MeshInstance3D" type="MeshInstance3D" parent="."]
transform = Transform3D(1, 0, 0, 0, 1, 0, 0, 0, 1, 12, 0, 0)
mesh = SubResource("QuadMesh_c2aqu")

[node name="MeshInstance3D3" type="MeshInstance3D" parent="."]
transform = Transform3D(0.5, 0, -0.866025, 0, 1, 0, 0.866025, 0, 0.5, 6, 0, 10.3923)
mesh = SubResource("QuadMesh_c2aqu")

[node name="MeshInstance3D4" type="MeshInstance3D" parent="."]
transform = Transform3D(0.5, 0, 0.866025, 0, 1, 0, -0.866025, 0, 0.5, 18, 0, 10.3923)
mesh = SubResource("QuadMesh_c2aqu")

[node name="MeshCenter" type="MeshInstance3D" parent="."]
transform = Transform3D(1, 0, 0, 0, 1, 0, 0, 0, 1, 12, 0, 6.928)
mesh = SubResource("BoxMesh_miyb7")
surface_material_override/0 = SubResource("StandardMaterial3D_561yc")
