; Engine configuration file.
; It's best edited using the editor UI and not directly,
; since the parameters that go here are not all obvious.
;
; Format:
;   [section] ; section goes between []
;   param=value ; assign values to parameters

config_version=5

[application]

config/name="LibraryOfB"
config/description="Enter an interesting project description here!"
run/main_scene="res://scenes/objects/library.tscn"
config/features=PackedStringArray("4.2")
config/icon="res://icon.png"

[autoload]

BookUtil="*res://autos/book_util.gd"
ShelfCache="*res://autos/shelf_cache.gd"
BookText="*res://autos/book_text.gd"

[importer_defaults]

scene={
"_subresources": {},
"animation/fps": 30,
"animation/import": true,
"animation/remove_immutable_tracks": true,
"animation/trimming": false,
"gltf/embedded_image_handling": 1,
"gltf/naming_version": 1,
"import_script/path": "",
"meshes/create_shadow_meshes": true,
"meshes/ensure_tangents": true,
"meshes/force_disable_compression": false,
"meshes/generate_lods": true,
"meshes/light_baking": 1,
"meshes/lightmap_texel_size": 0.2,
"nodes/apply_root_scale": true,
"nodes/root_name": "",
"nodes/root_scale": 0.05,
"nodes/root_type": "",
"skins/use_named_skins": true
}

[input]

move_forward={
"deadzone": 0.5,
"events": [Object(InputEventKey,"resource_local_to_scene":false,"resource_name":"","device":-1,"window_id":0,"alt_pressed":false,"shift_pressed":false,"ctrl_pressed":false,"meta_pressed":false,"pressed":false,"keycode":0,"physical_keycode":87,"key_label":0,"unicode":119,"echo":false,"script":null)
, Object(InputEventKey,"resource_local_to_scene":false,"resource_name":"","device":-1,"window_id":0,"alt_pressed":false,"shift_pressed":false,"ctrl_pressed":false,"meta_pressed":false,"pressed":false,"keycode":0,"physical_keycode":4194320,"key_label":0,"unicode":0,"echo":false,"script":null)
, Object(InputEventJoypadButton,"resource_local_to_scene":false,"resource_name":"","device":-1,"button_index":11,"pressure":0.0,"pressed":true,"script":null)
, Object(InputEventJoypadMotion,"resource_local_to_scene":false,"resource_name":"","device":-1,"axis":1,"axis_value":-1.0,"script":null)
]
}
move_back={
"deadzone": 0.5,
"events": [Object(InputEventKey,"resource_local_to_scene":false,"resource_name":"","device":-1,"window_id":0,"alt_pressed":false,"shift_pressed":false,"ctrl_pressed":false,"meta_pressed":false,"pressed":false,"keycode":0,"physical_keycode":83,"key_label":0,"unicode":115,"echo":false,"script":null)
, Object(InputEventKey,"resource_local_to_scene":false,"resource_name":"","device":-1,"window_id":0,"alt_pressed":false,"shift_pressed":false,"ctrl_pressed":false,"meta_pressed":false,"pressed":false,"keycode":0,"physical_keycode":4194322,"key_label":0,"unicode":0,"echo":false,"script":null)
, Object(InputEventJoypadButton,"resource_local_to_scene":false,"resource_name":"","device":-1,"button_index":12,"pressure":0.0,"pressed":true,"script":null)
, Object(InputEventJoypadMotion,"resource_local_to_scene":false,"resource_name":"","device":-1,"axis":1,"axis_value":1.0,"script":null)
]
}
move_left={
"deadzone": 0.5,
"events": [Object(InputEventKey,"resource_local_to_scene":false,"resource_name":"","device":-1,"window_id":0,"alt_pressed":false,"shift_pressed":false,"ctrl_pressed":false,"meta_pressed":false,"pressed":false,"keycode":0,"physical_keycode":65,"key_label":0,"unicode":97,"echo":false,"script":null)
, Object(InputEventKey,"resource_local_to_scene":false,"resource_name":"","device":-1,"window_id":0,"alt_pressed":false,"shift_pressed":false,"ctrl_pressed":false,"meta_pressed":false,"pressed":false,"keycode":0,"physical_keycode":4194319,"key_label":0,"unicode":0,"echo":false,"script":null)
, Object(InputEventJoypadButton,"resource_local_to_scene":false,"resource_name":"","device":-1,"button_index":13,"pressure":0.0,"pressed":true,"script":null)
, Object(InputEventJoypadMotion,"resource_local_to_scene":false,"resource_name":"","device":-1,"axis":0,"axis_value":-1.0,"script":null)
]
}
move_right={
"deadzone": 0.5,
"events": [Object(InputEventKey,"resource_local_to_scene":false,"resource_name":"","device":-1,"window_id":0,"alt_pressed":false,"shift_pressed":false,"ctrl_pressed":false,"meta_pressed":false,"pressed":false,"keycode":0,"physical_keycode":68,"key_label":0,"unicode":100,"echo":false,"script":null)
, Object(InputEventKey,"resource_local_to_scene":false,"resource_name":"","device":-1,"window_id":0,"alt_pressed":false,"shift_pressed":false,"ctrl_pressed":false,"meta_pressed":false,"pressed":false,"keycode":0,"physical_keycode":4194321,"key_label":0,"unicode":0,"echo":false,"script":null)
, Object(InputEventJoypadButton,"resource_local_to_scene":false,"resource_name":"","device":-1,"button_index":14,"pressure":0.0,"pressed":true,"script":null)
, Object(InputEventJoypadMotion,"resource_local_to_scene":false,"resource_name":"","device":-1,"axis":0,"axis_value":1.0,"script":null)
]
}
look_left={
"deadzone": 0.5,
"events": [Object(InputEventJoypadMotion,"resource_local_to_scene":false,"resource_name":"","device":-1,"axis":2,"axis_value":-1.0,"script":null)
]
}
look_right={
"deadzone": 0.5,
"events": [Object(InputEventJoypadMotion,"resource_local_to_scene":false,"resource_name":"","device":-1,"axis":2,"axis_value":1.0,"script":null)
]
}
look_up={
"deadzone": 0.5,
"events": [Object(InputEventJoypadMotion,"resource_local_to_scene":false,"resource_name":"","device":-1,"axis":3,"axis_value":-1.0,"script":null)
]
}
look_down={
"deadzone": 0.5,
"events": [Object(InputEventJoypadMotion,"resource_local_to_scene":false,"resource_name":"","device":-1,"axis":3,"axis_value":1.0,"script":null)
]
}
action={
"deadzone": 0.5,
"events": [Object(InputEventJoypadButton,"resource_local_to_scene":false,"resource_name":"","device":-1,"button_index":1,"pressure":0.0,"pressed":true,"script":null)
, Object(InputEventJoypadButton,"resource_local_to_scene":false,"resource_name":"","device":-1,"button_index":2,"pressure":0.0,"pressed":true,"script":null)
, Object(InputEventJoypadButton,"resource_local_to_scene":false,"resource_name":"","device":-1,"button_index":3,"pressure":0.0,"pressed":true,"script":null)
, Object(InputEventJoypadButton,"resource_local_to_scene":false,"resource_name":"","device":-1,"button_index":9,"pressure":0.0,"pressed":true,"script":null)
, Object(InputEventJoypadButton,"resource_local_to_scene":false,"resource_name":"","device":-1,"button_index":10,"pressure":0.0,"pressed":true,"script":null)
, Object(InputEventJoypadMotion,"resource_local_to_scene":false,"resource_name":"","device":-1,"axis":4,"axis_value":1.0,"script":null)
, Object(InputEventJoypadMotion,"resource_local_to_scene":false,"resource_name":"","device":-1,"axis":5,"axis_value":1.0,"script":null)
]
}
jump={
"deadzone": 0.5,
"events": [Object(InputEventKey,"resource_local_to_scene":false,"resource_name":"","device":-1,"window_id":0,"alt_pressed":false,"shift_pressed":false,"ctrl_pressed":false,"meta_pressed":false,"pressed":false,"keycode":0,"physical_keycode":32,"key_label":0,"unicode":32,"echo":false,"script":null)
, Object(InputEventJoypadButton,"resource_local_to_scene":false,"resource_name":"","device":-1,"button_index":0,"pressure":0.0,"pressed":false,"script":null)
]
}
