[gd_scene load_steps=5 format=3 uid="uid://7otolj6pl4us"]

[ext_resource type="Texture2D" uid="uid://c21orlhyywdog" path="res://scenes/objects/voro_tex.tres" id="1_014s7"]

[sub_resource type="CylinderMesh" id="CylinderMesh_si82g"]
top_radius = 2.2
height = 0.5
radial_segments = 32

[sub_resource type="Shader" id="Shader_485in"]
code = "// NOTE: Shader automatically converted from Godot Engine 4.2.1.stable's StandardMaterial3D.

shader_type spatial;
render_mode blend_mix,depth_draw_opaque,cull_back,diffuse_burley,specular_schlick_ggx;
uniform vec4 albedo : source_color;
uniform sampler2D texture_albedo : source_color,filter_linear_mipmap,repeat_enable;
uniform float point_size : hint_range(0,128);
uniform float roughness : hint_range(0,1);
uniform sampler2D texture_metallic : hint_default_white,filter_linear_mipmap,repeat_enable;
uniform vec4 metallic_texture_channel;
uniform sampler2D texture_roughness : hint_roughness_r,filter_linear_mipmap,repeat_enable;
uniform float specular;
uniform float metallic;
varying vec3 uv1_triplanar_pos;
varying vec3 l_uv_pos;
uniform float uv1_blend_sharpness;
varying vec3 uv1_power_normal;
varying vec3 l_uv_power_norm;
uniform vec3 uv1_scale;
uniform vec3 uv1_offset;
uniform vec3 uv2_scale;
uniform vec3 uv2_offset;

uniform sampler2D voro_tex : filter_linear_mipmap,repeat_enable;

void vertex() {
	vec3 normal = NORMAL;
	TANGENT = vec3(0.0,0.0,-1.0) * abs(normal.x);
	TANGENT+= vec3(1.0,0.0,0.0) * abs(normal.y);
	TANGENT+= vec3(1.0,0.0,0.0) * abs(normal.z);
	TANGENT = normalize(TANGENT);
	BINORMAL = vec3(0.0,1.0,0.0) * abs(normal.x);
	BINORMAL+= vec3(0.0,0.0,-1.0) * abs(normal.y);
	BINORMAL+= vec3(0.0,1.0,0.0) * abs(normal.z);
	BINORMAL = normalize(BINORMAL);
	uv1_power_normal=pow(abs(NORMAL),vec3(uv1_blend_sharpness));
	uv1_triplanar_pos = VERTEX * uv1_scale + uv1_offset;
	uv1_power_normal/=dot(uv1_power_normal,vec3(1.0));
	uv1_triplanar_pos *= vec3(1.0,-1.0, 1.0);
	
	vec3 normal2 = MODEL_NORMAL_MATRIX * NORMAL;
	l_uv_power_norm = pow(abs(normal2),vec3(uv1_blend_sharpness));
	l_uv_pos = (MODEL_MATRIX * vec4(VERTEX, 1.0f)).xyz * vec3(0.2) + uv1_offset;
	l_uv_power_norm /=dot(uv1_power_normal,vec3(1.0));
	l_uv_pos *= vec3(1.0,-1.0, 1.0);
}

vec4 triplanar_texture(sampler2D p_sampler,vec3 p_weights,vec3 p_triplanar_pos) {
	vec4 samp=vec4(0.0);
	samp+= texture(p_sampler,p_triplanar_pos.xy) * p_weights.z;
	samp+= texture(p_sampler,p_triplanar_pos.xz) * p_weights.y;
	samp+= texture(p_sampler,p_triplanar_pos.zy * vec2(-1.0,1.0)) * p_weights.x;
	return samp;
}


void light() {
	DIFFUSE_LIGHT += ATTENUATION;
	float voro = triplanar_texture(voro_tex, l_uv_power_norm, l_uv_pos).r;
	DIFFUSE_LIGHT = min(DIFFUSE_LIGHT, vec3(voro));
}


void fragment() {
	vec4 albedo_tex = triplanar_texture(texture_albedo,uv1_power_normal,uv1_triplanar_pos);
	ALBEDO = albedo.rgb * albedo_tex.rgb;
	float metallic_tex = dot(triplanar_texture(texture_metallic,uv1_power_normal,uv1_triplanar_pos),metallic_texture_channel);
	METALLIC = metallic_tex * metallic;
	vec4 roughness_texture_channel = vec4(1.0,0.0,0.0,0.0);
	float roughness_tex = dot(triplanar_texture(texture_roughness,uv1_power_normal,uv1_triplanar_pos),roughness_texture_channel);
	ROUGHNESS = roughness_tex * roughness;
	SPECULAR = specular;
}
"

[sub_resource type="ShaderMaterial" id="ShaderMaterial_mj1d1"]
render_priority = 0
shader = SubResource("Shader_485in")
shader_parameter/albedo = Color(0.168627, 0.431373, 0.447059, 1)
shader_parameter/point_size = 1.0
shader_parameter/roughness = 1.0
shader_parameter/metallic_texture_channel = null
shader_parameter/specular = 0.5
shader_parameter/metallic = 0.0
shader_parameter/uv1_blend_sharpness = 1.0
shader_parameter/uv1_scale = Vector3(0.2, 0.2, 0.2)
shader_parameter/uv1_offset = Vector3(0, 0, 0)
shader_parameter/uv2_scale = Vector3(1, 1, 1)
shader_parameter/uv2_offset = Vector3(0, 0, 0)
shader_parameter/voro_tex = ExtResource("1_014s7")

[node name="CircleFloor" type="MeshInstance3D"]
transform = Transform3D(1, 0, 0, 0, 1, 0, 0, 0, 1, 0, -0.219985, 0)
mesh = SubResource("CylinderMesh_si82g")
skeleton = NodePath("../../..")
surface_material_override/0 = SubResource("ShaderMaterial_mj1d1")
