[gd_resource type="ShaderMaterial" load_steps=8 format=3 uid="uid://xbq2qiuraelw"]

[ext_resource type="Texture2D" uid="uid://c21orlhyywdog" path="res://scenes/objects/voro_tex.tres" id="1_e0gv5"]

[sub_resource type="Shader" id="Shader_fuyil"]
code = "// NOTE: Shader automatically converted from Godot Engine 4.2.1.stable's StandardMaterial3D.

shader_type spatial;
render_mode blend_mix,depth_draw_opaque,cull_disabled,diffuse_burley,specular_schlick_ggx;
uniform vec4 albedo : source_color;
uniform sampler2D texture_albedo : source_color,filter_linear_mipmap,repeat_enable;
uniform float point_size : hint_range(0,128);
uniform float roughness : hint_range(0,1);
uniform sampler2D texture_metallic : hint_default_white,filter_linear_mipmap,repeat_enable;
uniform vec4 metallic_texture_channel;
uniform sampler2D texture_roughness : hint_roughness_r,filter_linear_mipmap,repeat_enable;
uniform float specular;
uniform float metallic;
uniform sampler2D texture_normal : hint_roughness_normal,filter_linear_mipmap,repeat_enable;
uniform float normal_scale : hint_range(-16,16);
varying vec3 uv1_triplanar_pos;
varying vec3 l_uv_pos;
uniform float uv1_blend_sharpness;
varying vec3 uv1_power_normal;
varying vec3 l_uv_power_norm;
uniform vec3 uv1_scale;
uniform vec3 uv1_offset;
uniform vec3 uv2_scale;
uniform vec3 uv2_offset;

uniform sampler2D voro_tex : filter_linear_mipmap,repeat_enable;


void vertex() {
	vec3 normal = NORMAL;
	TANGENT = vec3(0.0,0.0,-1.0) * abs(normal.x);
	TANGENT+= vec3(1.0,0.0,0.0) * abs(normal.y);
	TANGENT+= vec3(1.0,0.0,0.0) * abs(normal.z);
	TANGENT = normalize(TANGENT);
	BINORMAL = vec3(0.0,1.0,0.0) * abs(normal.x);
	BINORMAL+= vec3(0.0,0.0,-1.0) * abs(normal.y);
	BINORMAL+= vec3(0.0,1.0,0.0) * abs(normal.z);
	BINORMAL = normalize(BINORMAL);
	uv1_power_normal=pow(abs(NORMAL),vec3(uv1_blend_sharpness));
	uv1_triplanar_pos = VERTEX * uv1_scale + uv1_offset;
	uv1_power_normal/=dot(uv1_power_normal,vec3(1.0));
	uv1_triplanar_pos *= vec3(1.0,-1.0, 1.0);
	
	vec3 normal2 = MODEL_NORMAL_MATRIX * NORMAL;
	l_uv_power_norm = pow(abs(normal2),vec3(uv1_blend_sharpness));
	l_uv_pos = (MODEL_MATRIX * vec4(VERTEX, 1.0f)).xyz * vec3(0.2) + uv1_offset;
	l_uv_power_norm /=dot(uv1_power_normal,vec3(1.0));
	l_uv_pos *= vec3(1.0,-1.0, 1.0);
}




vec4 triplanar_texture(sampler2D p_sampler,vec3 p_weights,vec3 p_triplanar_pos) {
	vec4 samp=vec4(0.0);
	samp+= texture(p_sampler,p_triplanar_pos.xy) * p_weights.z;
	samp+= texture(p_sampler,p_triplanar_pos.xz) * p_weights.y;
	samp+= texture(p_sampler,p_triplanar_pos.zy * vec2(-1.0,1.0)) * p_weights.x;
	return samp;
}


void light() {
	DIFFUSE_LIGHT += clamp(dot(NORMAL, LIGHT), 0.1, 1.0) * LIGHT_COLOR * ATTENUATION;
	float voro = triplanar_texture(voro_tex, l_uv_power_norm, l_uv_pos).r;
	DIFFUSE_LIGHT = min(DIFFUSE_LIGHT, vec3(voro * 2.0));
}


void fragment() {
	vec4 albedo_tex = triplanar_texture(texture_albedo,uv1_power_normal,uv1_triplanar_pos);
	ALBEDO = albedo.rgb * albedo_tex.rgb;
	float metallic_tex = dot(triplanar_texture(texture_metallic,uv1_power_normal,uv1_triplanar_pos),metallic_texture_channel);
	METALLIC = metallic_tex * metallic;
	vec4 roughness_texture_channel = vec4(1.0,0.0,0.0,0.0);
	float roughness_tex = dot(triplanar_texture(texture_roughness,uv1_power_normal,uv1_triplanar_pos),roughness_texture_channel);
	ROUGHNESS = roughness_tex * roughness;
	SPECULAR = specular;
	NORMAL_MAP = triplanar_texture(texture_normal,uv1_power_normal,uv1_triplanar_pos).rgb;
	NORMAL_MAP_DEPTH = normal_scale;
}
"

[sub_resource type="Gradient" id="Gradient_ctpxp"]
offsets = PackedFloat32Array(0.0737705, 0.655738, 1)
colors = PackedColorArray(0.907942, 0.907942, 0.907942, 1, 1, 1, 1, 1, 0.920994, 0.920995, 0.920994, 1)

[sub_resource type="FastNoiseLite" id="FastNoiseLite_5wlbq"]
frequency = 0.0063
fractal_gain = 0.7
fractal_weighted_strength = 0.21

[sub_resource type="NoiseTexture2D" id="NoiseTexture2D_sohy7"]
seamless = true
color_ramp = SubResource("Gradient_ctpxp")
noise = SubResource("FastNoiseLite_5wlbq")

[sub_resource type="FastNoiseLite" id="FastNoiseLite_xlg67"]
frequency = 0.0278
fractal_octaves = 3
fractal_lacunarity = 3.0
fractal_gain = 0.7
domain_warp_enabled = true
domain_warp_amplitude = 7.0

[sub_resource type="NoiseTexture2D" id="NoiseTexture2D_s8lil"]
seamless = true
as_normal_map = true
bump_strength = 0.1
noise = SubResource("FastNoiseLite_xlg67")

[resource]
render_priority = 0
shader = SubResource("Shader_fuyil")
shader_parameter/albedo = Color(0.411765, 0.133333, 0.188235, 1)
shader_parameter/point_size = 1.0
shader_parameter/roughness = 1.0
shader_parameter/metallic_texture_channel = null
shader_parameter/specular = 0.5
shader_parameter/metallic = 0.0
shader_parameter/normal_scale = 1.0
shader_parameter/uv1_blend_sharpness = 1.0
shader_parameter/uv1_scale = Vector3(1, 1, 1)
shader_parameter/uv1_offset = Vector3(0, 0, 0)
shader_parameter/uv2_scale = Vector3(1, 1, 1)
shader_parameter/uv2_offset = Vector3(0, 0, 0)
shader_parameter/texture_albedo = SubResource("NoiseTexture2D_sohy7")
shader_parameter/texture_normal = SubResource("NoiseTexture2D_s8lil")
shader_parameter/voro_tex = ExtResource("1_e0gv5")
