[gd_resource type="StandardMaterial3D" load_steps=5 format=3 uid="uid://djxhbo8qdw7dj"]

[sub_resource type="FastNoiseLite" id="FastNoiseLite_n3jul"]
domain_warp_enabled = true
domain_warp_frequency = 0.1

[sub_resource type="NoiseTexture2D" id="NoiseTexture2D_88uh6"]
seamless = true
noise = SubResource("FastNoiseLite_n3jul")

[sub_resource type="FastNoiseLite" id="FastNoiseLite_h1w56"]
noise_type = 2
fractal_type = 2

[sub_resource type="NoiseTexture2D" id="NoiseTexture2D_pfhl1"]
seamless = true
noise = SubResource("FastNoiseLite_h1w56")

[resource]
albedo_color = Color(0.835294, 0.45098, 0.231373, 1)
albedo_texture = SubResource("NoiseTexture2D_88uh6")
roughness = 0.69
roughness_texture = SubResource("NoiseTexture2D_pfhl1")
subsurf_scatter_strength = 0.24
uv1_scale = Vector3(0.7, 3, 1.4)
uv1_triplanar = true
