[gd_resource type="StandardMaterial3D" load_steps=2 format=3 uid="uid://ci47nkxip2syt"]

[ext_resource type="Texture2D" uid="uid://b72wua2mdovga" path="res://scenes/blender/book_openable_book_color_test.png" id="1_p6v7o"]

[resource]
resource_local_to_scene = true
resource_name = "Material.001"
transparency = 2
alpha_scissor_threshold = 0.6
alpha_antialiasing_mode = 0
cull_mode = 2
albedo_texture = ExtResource("1_p6v7o")
roughness = 0.5
